orden,num_insc,titular,num_doc
0001,161334/8,ABALLAY CARLOS JESUS DANIEL, 38968133
0002,161291/0,ABALLAY GLADIS NATASHA NAIR, 37069653
0003,168793/8,ABRAHAM YAMILE NOEMI, 38190371
0004,168594/0,ACEVEDO  ELVIA YOHANA,43.112.310
0005,168718/5,ACEVEDO ORLANDO SEBASTIAN, 36891808
0006,168585/8,ACEVEDO RAMÓN ALBERTO, 22299940
0007,160275/4,ACEVEDO YAMILA BELÉN MARIA , 36246096
0008,168641/9,ACOSTA  CORNELIO, 22686606
0009,19931/5,ACOSTA FERMIN,  5736829
0010,140990/3,ACOSTA JOSE FABIO, 32248129
0011,168828/2,ACOSTA JUANA NOEMI, 38195223